<?xml version="1.0" encoding="utf-8"?>
<COLLADA xmlns="http://www.collada.org/2005/11/COLLADASchema" version="1.4.1" xmlns:xsi="http://www.w3.org/2001/XMLSchema-instance">
  <asset>
    <contributor>
      <author>Blender User</author>
      <authoring_tool>Blender 3.0.0 commit date:2021-12-02, commit time:18:35, hash:f1cca3055776</authoring_tool>
    </contributor>
    <created>2022-02-07T13:14:28</created>
    <modified>2022-02-07T13:14:28</modified>
    <unit name="meter" meter="1"/>
    <up_axis>Z_UP</up_axis>
  </asset>
  <library_effects>
    <effect id="Plastic_Tank_Mat-effect">
      <profile_COMMON>
        <newparam sid="Map__37-surface">
          <surface type="2D">
            <init_from>Map__37</init_from>
          </surface>
        </newparam>
        <newparam sid="Map__37-sampler">
          <sampler2D>
            <source>Map__37-surface</source>
          </sampler2D>
        </newparam>
        <technique sid="common">
          <lambert>
            <emission>
              <color sid="emission">0 0 0 1</color>
            </emission>
            <diffuse>
              <texture texture="Map__37-sampler" texcoord="UVChannel_1"/>
            </diffuse>
            <reflectivity>
              <float sid="specular">1</float>
            </reflectivity>
            <index_of_refraction>
              <float sid="ior">1.45</float>
            </index_of_refraction>
          </lambert>
        </technique>
      </profile_COMMON>
    </effect>
    <effect id="Material_001-effect">
      <profile_COMMON>
        <technique sid="common">
          <lambert>
            <emission>
              <color sid="emission">0 0 0 1</color>
            </emission>
            <diffuse>
              <color sid="diffuse">0.8 0.8 0.8 1</color>
            </diffuse>
            <index_of_refraction>
              <float sid="ior">1.45</float>
            </index_of_refraction>
          </lambert>
        </technique>
      </profile_COMMON>
    </effect>
  </library_effects>
  <library_images>
    <image id="Map__37" name="Map__37">
      <init_from>/C:/Users/Blake/Documents/Unity%20Projects/GB/gb/Assets/Graphics/GB%20Models/Oxygen_Tank_FBX/Tank_Plastic_diffuse.png</init_from>
    </image>
  </library_images>
  <library_materials>
    <material id="Plastic_Tank_Mat-material" name="Plastic_Tank_Mat">
      <instance_effect url="#Plastic_Tank_Mat-effect"/>
    </material>
    <material id="Material_001-material" name="Material.001">
      <instance_effect url="#Material_001-effect"/>
    </material>
  </library_materials>
  <library_geometries>
    <geometry id="Mesh_004-mesh" name="Mesh.004">
      <mesh>
        <source id="Mesh_004-mesh-positions">
          <float_array id="Mesh_004-mesh-positions-array" count="213">5.243684 56.28016 -4.782705 5.440607 56.3717 -4.737886 5.099583 56.27599 -4.638578 5.046919 56.27029 -4.441773 5.099748 56.26459 -4.245064 5.243849 56.26042 -4.101128 5.440606 56.2589 -4.048458 5.637363 56.26042 -4.101128 5.781464 56.2646 -4.245064 5.834293 56.2703 -4.441773 5.78163 56.27599 -4.638577 5.589174 56.37044 -4.69809 5.119283 51.24337 -4.998036 5.440606 51.24596 -5.084123 4.884126 51.2363 -4.762878 4.798152 51.22664 -4.44174 4.88433 51.21699 -4.120719 5.119487 51.20991 -3.885797 5.440606 51.20733 -3.799828 5.761725 51.20992 -3.885797 5.996881 51.21699 -4.120719 6.08306 51.22665 -4.441739 5.997087 51.2363 -4.762877 5.76193 51.24337 -4.998035 5.440607 56.38066 -4.617641 5.352171 56.3799 -4.593957 5.287432 56.37785 -4.52925 5.263735 56.37503 -4.44086 5.287432 56.37222 -4.35247 5.352171 56.37016 -4.287763 5.440606 56.36941 -4.264079 5.529041 56.37017 -4.287763 5.59378 56.37222 -4.352469 5.617476 56.37503 -4.44086 5.59378 56.37785 -4.529251 5.529041 56.3799 -4.593957 5.292039 56.37043 -4.69809 5.440606 56.28168 -4.835471 5.183298 56.36698 -4.589375 5.143521 56.36226 -4.440893 5.183348 56.35755 -4.292439 5.292088 56.35409 -4.183782 5.440606 56.35283 -4.144014 5.589124 56.3541 -4.183782 5.697865 56.35755 -4.292439 5.737691 56.36227 -4.440893 5.697915 56.36698 -4.589375 5.637529 56.28016 -4.782705 5.257725 56.34564 -4.757915 5.440607 56.34714 -4.806935 5.123938 56.34155 -4.624046 5.075096 56.33596 -4.441302 5.124194 56.33037 -4.258707 5.25798 56.32628 -4.125133 5.440606 56.32478 -4.076261 5.623232 56.32628 -4.125133 5.757018 56.33037 -4.258707 5.806116 56.33596 -4.441302 5.757275 56.34155 -4.624045 5.623488 56.34564 -4.757915 5.440607 56.37784 -4.529251 5.440606 56.37503 -4.44086 5.440605 56.37222 -4.352469 5.13026 56.22714 -4.460706 5.13026 51.4478 -4.460706 5.13026 56.22714 -4.420096 5.13026 51.4478 -4.420096 5.758915 56.22714 -4.460706 5.758915 51.4478 -4.460706 5.758915 56.22714 -4.420096 5.758915 51.4478 -4.420096</float_array>
          <technique_common>
            <accessor source="#Mesh_004-mesh-positions-array" count="71" stride="3">
              <param name="X" type="float"/>
              <param name="Y" type="float"/>
              <param name="Z" type="float"/>
            </accessor>
          </technique_common>
        </source>
        <source id="Mesh_004-mesh-normals">
          <float_array id="Mesh_004-mesh-normals-array" count="240">-5.22179e-7 0.04931831 -0.9987831 -0.4898922 0.2222731 -0.8429712 2.11362e-6 0.2227115 -0.9748844 -0.5021287 0.04931396 -0.8633857 -0.8470335 0.2210184 -0.4834101 -0.8677688 0.04929709 -0.4945171 -0.975645 0.2192804 0.005748212 -0.9987634 0.04926306 0.006708741 -0.8427383 0.2174752 0.4924395 -0.8619604 0.04921686 0.504581 -0.4855989 0.2161425 0.8470397 -0.4963238 0.0491755 0.8667436 4.34212e-6 0.2156402 0.9764729 0.4963227 0.0491755 0.8667443 -1.24356e-6 0.04915887 0.998791 0.8619595 0.0492168 0.5045828 0.4856088 0.2161389 0.8470349 0.9987633 0.04926288 0.006710708 0.8427366 0.2174921 0.4924353 0.8677686 0.04929685 -0.4945174 0.9756461 0.2192755 0.005754888 0.5021275 0.04931384 -0.8633865 0.8470365 0.2210225 -0.4834029 0.4898943 0.2222669 -0.8429716 0.03073126 0.9959148 0.08490729 -2.55934e-6 0.9994946 0.03179055 -3.44651e-5 0.9956539 0.09313106 -3.14218e-5 0.9738004 -0.2274049 -0.03086853 0.9992854 -0.02181309 0 0.9995471 -0.0300951 -0.1286745 0.9728246 -0.1924977 -0.05345904 0.9985697 8.4231e-4 -0.2219818 0.9701392 -0.09774565 -0.06165391 0.9975941 0.03170061 -0.2546303 0.966564 0.03029 -0.05330526 0.996623 0.06246018 -0.2191182 0.9630289 0.1567246 -0.03078287 0.9959119 0.08492374 -0.1259344 0.9604754 0.2482493 0.1259526 0.9604668 0.2482729 2.72484e-6 0.9595466 0.2815499 0.219174 0.9630167 0.1567218 0.2545842 0.9665759 0.0302971 0.05329495 0.9966245 0.06244462 0.2219145 0.9701535 -0.0977565 0.0616154 0.9975965 0.03170031 0.1286912 0.97282 -0.1925094 0.05347228 0.9985691 8.51737e-4 0.03087544 0.9992855 -0.02180266 -1.99769e-5 0.9422429 -0.3349304 -0.1817293 0.9410238 -0.285392 -0.3130669 0.9376012 -0.1513049 -0.3585789 0.9330397 0.02929556 -0.3082236 0.9284831 0.2071651 -0.177024 0.9251694 0.3357441 0 0.9239508 0.3825116 0.1770554 0.9251496 0.3357824 0.3083152 0.9284524 0.2071663 0.3585757 0.9330408 0.02929902 0.3129902 0.9376218 -0.1513353 0.1817895 0.9410003 -0.2854313 -0.4622638 0.3988406 -0.7919839 -0.7986897 0.3967566 -0.4524148 -0.9190561 0.394029 0.008792221 -0.7930926 0.3912878 0.4667954 -0.4566779 0.3893622 0.7999015 6.61413e-6 0.3886744 0.9213753 0.4566931 0.3893591 0.7998943 0.7930873 0.3913109 0.4667851 0.9190636 0.394011 0.00879991 0.798694 0.3967602 -0.4524041 0.4622753 0.3988264 -0.7919843 -7.36636e-6 0.9994943 0.03179806 -1.64192e-5 0.9994943 0.03180259 -1 0 0 0 0 1 1 0 0 0 0 -1 0 1 0 1.02519e-5 0.3996054 -0.9166873</float_array>
          <technique_common>
            <accessor source="#Mesh_004-mesh-normals-array" count="80" stride="3">
              <param name="X" type="float"/>
              <param name="Y" type="float"/>
              <param name="Z" type="float"/>
            </accessor>
          </technique_common>
        </source>
        <source id="Mesh_004-mesh-map-0">
          <float_array id="Mesh_004-mesh-map-0-array" count="732">0.08504694 0.6832256 0.1265237 0.8496746 0.085047 0.849725 0.126556 0.6831403 0.1680074 0.8495371 0.1265237 0.8496746 0.1680631 0.6829072 0.2095021 0.8493492 0.1680074 0.8495371 0.2095637 0.6825885 0.2510051 0.8491614 0.2095021 0.8493492 0.2510593 0.68227 0.292514 0.8490238 0.2510051 0.8491614 0.292545 0.6820368 0.334025 0.8489735 0.292514 0.8490238 0.375505 0.6820369 0.334025 0.8489735 0.3340251 0.6819515 0.4169906 0.6822701 0.375536 0.8490239 0.375505 0.6820369 0.4584858 0.6825887 0.4170448 0.8491615 0.4169906 0.6822701 0.4999868 0.6829072 0.4585472 0.8493494 0.4584858 0.6825887 0.04353779 0.6831403 0.002086341 0.8495371 0.00203073 0.6829072 0.08504694 0.6832256 0.04357022 0.8496746 0.04353779 0.6831403 0.8938 0.1449528 0.9146448 0.1370366 0.9098641 0.1543814 0.9354897 0.06140929 0.9450511 0.09442961 0.928987 0.08500099 0.962476 0.07724976 0.9542486 0.110627 0.9450511 0.09442961 0.9779236 0.1044614 0.9541154 0.1292527 0.9542486 0.110627 0.9776941 0.1357488 0.944687 0.1453168 0.9541154 0.1292527 0.9618534 0.1627268 0.92849 0.1545143 0.944687 0.1453168 0.9346491 0.1781703 0.9098641 0.1543814 0.92849 0.1545143 0.8763908 0.1621127 0.9098641 0.1543814 0.9033689 0.1779453 0.8609402 0.1349127 0.8938 0.1449528 0.8763908 0.1621127 0.8611584 0.103628 0.8846024 0.1287558 0.8609402 0.1349127 0.8769909 0.07664167 0.8847356 0.1101297 0.8611584 0.103628 0.9041984 0.06118696 0.894164 0.09406566 0.8769909 0.07664167 0.9354897 0.06140929 0.9103609 0.08486807 0.9041984 0.06118696 0.962476 0.07724976 0.9391783 0.04802626 0.9723962 0.06753146 0.9779236 0.1044614 0.9723962 0.06753146 0.9913956 0.1010325 0.9776941 0.1357488 0.9913956 0.1010325 0.9910912 0.1395317 0.9618534 0.1627268 0.9910912 0.1395317 0.9715859 0.172707 0.9346491 0.1781703 0.9715859 0.172707 0.9381216 0.1916849 0.9033689 0.1779453 0.9381216 0.1916849 0.8996598 0.1914017 0.8664842 0.1719396 0.9033689 0.1779453 0.8996598 0.1914017 0.847469 0.1384967 0.8763908 0.1621127 0.8664842 0.1719396 0.847715 0.1000131 0.8609402 0.1349127 0.847469 0.1384967 0.867178 0.06679487 0.8611584 0.103628 0.847715 0.1000131 0.9006583 0.04775917 0.8769909 0.07664167 0.867178 0.06679487 0.9391783 0.04802626 0.9041984 0.06118696 0.9006583 0.04775917 0.126574 0.85184 0.085047 0.849725 0.1265237 0.8496746 0.1680938 0.8517048 0.1265237 0.8496746 0.1680074 0.8495371 0.2095974 0.8515204 0.1680074 0.8495371 0.2095021 0.8493492 0.2510892 0.851336 0.2095021 0.8493492 0.2510051 0.8491614 0.2925621 0.8512011 0.2510051 0.8491614 0.292514 0.8490238 0.334025 0.8511517 0.292514 0.8490238 0.334025 0.8489735 0.375536 0.8490239 0.334025 0.8511517 0.334025 0.8489735 0.4170448 0.8491615 0.3754879 0.8512011 0.375536 0.8490239 0.4585472 0.8493494 0.4169606 0.851336 0.4170448 0.8491615 0.5000424 0.8495371 0.45845 0.8515205 0.4585472 0.8493494 0.04357022 0.8496746 0.001999974 0.8517049 0.002086341 0.8495371 0.085047 0.849725 0.04351985 0.85184 0.04357022 0.8496746 0.894164 0.09406566 0.9194256 0.1196912 0.8847356 0.1101297 0.8846024 0.1287558 0.9194256 0.1196912 0.9146448 0.1370366 0.9103609 0.08486807 0.9242064 0.1023463 0.894164 0.09406566 0.9450511 0.09442961 0.9242064 0.1023463 0.928987 0.08500099 0.9542486 0.110627 0.9194256 0.1196912 0.9242064 0.1023463 0.9194256 0.1196912 0.944687 0.1453168 0.9146448 0.1370366 0.9146448 0.1370366 0.92849 0.1545143 0.9098641 0.1543814 0 0 0 0 0 0 0.01336902 7.25687e-5 0.9849323 0.9999274 0.01336759 0.9999274 0 0 0 0 0 0 0.004706919 7.25389e-5 0.9762703 0.9999275 0.004705548 0.9999275 0 0 0 0 0 0 0.08504694 0.6832256 0.126556 0.6831403 0.1265237 0.8496746 0.126556 0.6831403 0.1680631 0.6829072 0.1680074 0.8495371 0.1680631 0.6829072 0.2095637 0.6825885 0.2095021 0.8493492 0.2095637 0.6825885 0.2510593 0.68227 0.2510051 0.8491614 0.2510593 0.68227 0.292545 0.6820368 0.292514 0.8490238 0.292545 0.6820368 0.3340251 0.6819515 0.334025 0.8489735 0.375505 0.6820369 0.375536 0.8490239 0.334025 0.8489735 0.4169906 0.6822701 0.4170448 0.8491615 0.375536 0.8490239 0.4584858 0.6825887 0.4585472 0.8493494 0.4170448 0.8491615 0.4999868 0.6829072 0.5000424 0.8495371 0.4585472 0.8493494 0.04353779 0.6831403 0.04357022 0.8496746 0.002086341 0.8495371 0.08504694 0.6832256 0.085047 0.849725 0.04357022 0.8496746 0.8938 0.1449528 0.8846024 0.1287558 0.9146448 0.1370366 0.9354897 0.06140929 0.962476 0.07724976 0.9450511 0.09442961 0.962476 0.07724976 0.9779236 0.1044614 0.9542486 0.110627 0.9779236 0.1044614 0.9776941 0.1357488 0.9541154 0.1292527 0.9776941 0.1357488 0.9618534 0.1627268 0.944687 0.1453168 0.9618534 0.1627268 0.9346491 0.1781703 0.92849 0.1545143 0.9346491 0.1781703 0.9033689 0.1779453 0.9098641 0.1543814 0.8763908 0.1621127 0.8938 0.1449528 0.9098641 0.1543814 0.8609402 0.1349127 0.8846024 0.1287558 0.8938 0.1449528 0.8611584 0.103628 0.8847356 0.1101297 0.8846024 0.1287558 0.8769909 0.07664167 0.894164 0.09406566 0.8847356 0.1101297 0.9041984 0.06118696 0.9103609 0.08486807 0.894164 0.09406566 0.9354897 0.06140929 0.928987 0.08500099 0.9103609 0.08486807 0.962476 0.07724976 0.9354897 0.06140929 0.9391783 0.04802626 0.9779236 0.1044614 0.962476 0.07724976 0.9723962 0.06753146 0.9776941 0.1357488 0.9779236 0.1044614 0.9913956 0.1010325 0.9618534 0.1627268 0.9776941 0.1357488 0.9910912 0.1395317 0.9346491 0.1781703 0.9618534 0.1627268 0.9715859 0.172707 0.9033689 0.1779453 0.9346491 0.1781703 0.9381216 0.1916849 0.8664842 0.1719396 0.8763908 0.1621127 0.9033689 0.1779453 0.847469 0.1384967 0.8609402 0.1349127 0.8763908 0.1621127 0.847715 0.1000131 0.8611584 0.103628 0.8609402 0.1349127 0.867178 0.06679487 0.8769909 0.07664167 0.8611584 0.103628 0.9006583 0.04775917 0.9041984 0.06118696 0.8769909 0.07664167 0.9391783 0.04802626 0.9354897 0.06140929 0.9041984 0.06118696 0.126574 0.85184 0.08504694 0.8518894 0.085047 0.849725 0.1680938 0.8517048 0.126574 0.85184 0.1265237 0.8496746 0.2095974 0.8515204 0.1680938 0.8517048 0.1680074 0.8495371 0.2510892 0.851336 0.2095974 0.8515204 0.2095021 0.8493492 0.2925621 0.8512011 0.2510892 0.851336 0.2510051 0.8491614 0.334025 0.8511517 0.2925621 0.8512011 0.292514 0.8490238 0.375536 0.8490239 0.3754879 0.8512011 0.334025 0.8511517 0.4170448 0.8491615 0.4169606 0.851336 0.3754879 0.8512011 0.4585472 0.8493494 0.45845 0.8515205 0.4169606 0.851336 0.5000424 0.8495371 0.4999561 0.8517049 0.45845 0.8515205 0.04357022 0.8496746 0.04351985 0.85184 0.001999974 0.8517049 0.085047 0.849725 0.08504694 0.8518894 0.04351985 0.85184 0.894164 0.09406566 0.9242064 0.1023463 0.9194256 0.1196912 0.8846024 0.1287558 0.8847356 0.1101297 0.9194256 0.1196912 0.9103609 0.08486807 0.928987 0.08500099 0.9242064 0.1023463 0.9450511 0.09442961 0.9542486 0.110627 0.9242064 0.1023463 0.9542486 0.110627 0.9541154 0.1292527 0.9194256 0.1196912 0.9194256 0.1196912 0.9541154 0.1292527 0.944687 0.1453168 0.9146448 0.1370366 0.944687 0.1453168 0.92849 0.1545143 0 0 0 0 0 0 0.01336902 7.25687e-5 0.9849323 7.25389e-5 0.9849323 0.9999274 0 0 0 0 0 0 0.004706919 7.25389e-5 0.9762703 7.25389e-5 0.9762703 0.9999275 0 0 0 0 0 0</float_array>
          <technique_common>
            <accessor source="#Mesh_004-mesh-map-0-array" count="366" stride="2">
              <param name="S" type="float"/>
              <param name="T" type="float"/>
            </accessor>
          </technique_common>
        </source>
        <source id="Mesh_004-mesh-map-1">
          <float_array id="Mesh_004-mesh-map-1-array" count="732">0 0 0 0 0 0 0 0 0 0 0 0 0 0 0 0 0 0 0 0 0 0 0 0 0 0 0 0 0 0 0 0 0 0 0 0 0 0 0 0 0 0 0 0 0 0 0 0 0 0 0 0 0 0 0 0 0 0 0 0 0 0 0 0 0 0 0 0 0 0 0 0 0 0 0 0 0 0 0 0 0 0 0 0 0 0 0 0 0 0 0 0 0 0 0 0 0 0 0 0 0 0 0 0 0 0 0 0 0 0 0 0 0 0 0 0 0 0 0 0 0 0 0 0 0 0 0 0 0 0 0 0 0 0 0 0 0 0 0 0 0 0 0 0 0 0 0 0 0 0 0 0 0 0 0 0 0 0 0 0 0 0 0 0 0 0 0 0 0 0 0 0 0 0 0 0 0 0 0 0 0 0 0 0 0 0 0 0 0 0 0 0 0 0 0 0 0 0 0 0 0 0 0 0 0 0 0 0 0 0 0 0 0 0 0 0 0 0 0 0 0 0 0 0 0 0 0 0 0 0 0 0 0 0 0 0 0 0 0 0 0 0 0 0 0 0 0 0 0 0 0 0 0 0 0 0 0 0 0 0 0 0 0 0 0 0 0 0 0 0 0 0 0 0 0 0 0 0 0 0 0 0 0 0 0 0 0 0 0 0 0 0 0 0 0 0 0 0 0 0 0 0 0 0 0 0 0 0 0 0 0 0 0 0 0 0 0 0 0 0 0 0 0 0 0 0 0 0 0 0 0 0 0 0 0 0 0.625 0 0.375 0.25 0.375 0 0.625 0.25 0.375 0.5 0.375 0.25 0.625 0.5 0.375 0.75 0.375 0.5 0.625 0.75 0.375 1 0.375 0.75 0.375 0.5 0.125 0.75 0.125 0.5 0 0 0 0 0 0 0 0 0 0 0 0 0 0 0 0 0 0 0 0 0 0 0 0 0 0 0 0 0 0 0 0 0 0 0 0 0 0 0 0 0 0 0 0 0 0 0 0 0 0 0 0 0 0 0 0 0 0 0 0 0 0 0 0 0 0 0 0 0 0 0 0 0 0 0 0 0 0 0 0 0 0 0 0 0 0 0 0 0 0 0 0 0 0 0 0 0 0 0 0 0 0 0 0 0 0 0 0 0 0 0 0 0 0 0 0 0 0 0 0 0 0 0 0 0 0 0 0 0 0 0 0 0 0 0 0 0 0 0 0 0 0 0 0 0 0 0 0 0 0 0 0 0 0 0 0 0 0 0 0 0 0 0 0 0 0 0 0 0 0 0 0 0 0 0 0 0 0 0 0 0 0 0 0 0 0 0 0 0 0 0 0 0 0 0 0 0 0 0 0 0 0 0 0 0 0 0 0 0 0 0 0 0 0 0 0 0 0 0 0 0 0 0 0 0 0 0 0 0 0 0 0 0 0 0 0 0 0 0 0 0 0 0 0 0 0 0 0 0 0 0 0 0 0 0 0 0 0 0 0 0 0 0 0 0 0 0 0 0 0 0 0 0 0 0 0 0 0 0 0 0 0 0 0 0 0 0 0 0 0 0 0 0 0 0 0 0 0 0 0 0 0 0 0 0 0 0 0 0 0 0 0 0 0 0 0 0 0 0 0 0 0 0 0 0 0 0 0 0 0 0 0 0 0 0 0 0.625 0 0.625 0.25 0.375 0.25 0.625 0.25 0.625 0.5 0.375 0.5 0.625 0.5 0.625 0.75 0.375 0.75 0.625 0.75 0.625 1 0.375 1 0.375 0.5 0.375 0.75 0.125 0.75</float_array>
          <technique_common>
            <accessor source="#Mesh_004-mesh-map-1-array" count="366" stride="2">
              <param name="S" type="float"/>
              <param name="T" type="float"/>
            </accessor>
          </technique_common>
        </source>
        <vertices id="Mesh_004-mesh-vertices">
          <input semantic="POSITION" source="#Mesh_004-mesh-positions"/>
        </vertices>
        <triangles material="Plastic_Tank_Mat-material" count="118">
          <input semantic="VERTEX" source="#Mesh_004-mesh-vertices" offset="0"/>
          <input semantic="NORMAL" source="#Mesh_004-mesh-normals" offset="1"/>
          <input semantic="TEXCOORD" source="#Mesh_004-mesh-map-0" offset="2" set="0"/>
          <input semantic="TEXCOORD" source="#Mesh_004-mesh-map-1" offset="2" set="1"/>
          <p>13 0 0 0 1 1 37 2 2 12 3 3 2 4 4 0 1 5 14 5 6 3 6 7 2 4 8 15 7 9 4 8 10 3 6 11 16 9 12 5 10 13 4 8 14 17 11 15 6 12 16 5 10 17 19 13 18 6 12 19 18 14 20 20 15 21 7 16 22 19 13 23 21 17 24 8 18 25 20 15 26 22 19 27 9 20 28 21 17 29 23 21 30 10 22 31 22 19 32 13 0 33 47 23 34 23 21 35 31 24 36 62 25 37 30 26 38 1 27 39 25 28 40 24 29 41 36 30 42 26 31 43 25 28 44 38 32 45 27 33 46 26 31 47 39 34 48 28 35 49 27 33 50 40 36 51 29 37 52 28 35 53 41 38 54 30 26 55 29 37 56 43 39 57 30 26 58 42 40 59 44 41 60 31 24 61 43 39 62 45 42 63 32 43 64 44 41 65 46 44 66 33 45 67 45 42 68 11 46 69 34 47 70 46 44 71 1 27 72 35 48 73 11 46 74 36 30 75 49 49 76 48 50 77 38 32 78 48 50 79 50 51 80 39 34 81 50 51 82 51 52 83 40 36 84 51 52 85 52 53 86 41 38 87 52 53 88 53 54 89 42 40 90 53 54 91 54 55 92 55 56 93 42 40 94 54 55 95 56 57 96 43 39 97 55 56 98 57 58 99 44 41 100 56 57 101 58 59 102 45 42 103 57 58 104 59 60 105 46 44 106 58 59 107 49 49 108 11 46 109 59 60 110 48 61 111 37 2 112 0 1 113 50 62 114 0 1 115 2 4 116 51 63 117 2 4 118 3 6 119 52 64 120 3 6 121 4 8 122 53 65 123 4 8 124 5 10 125 54 66 126 5 10 127 6 12 128 7 16 129 54 66 130 6 12 131 8 18 132 55 67 133 7 16 134 9 20 135 56 68 136 8 18 137 10 22 138 57 69 139 9 20 140 47 23 141 58 70 142 10 22 143 37 2 144 59 71 145 47 23 146 34 47 147 61 72 148 33 45 149 32 43 150 61 72 151 62 25 152 35 48 153 60 73 154 34 47 155 25 28 156 60 73 157 24 29 158 26 31 159 61 72 160 60 73 161 61 72 162 28 35 163 62 25 164 62 25 165 29 37 166 30 26 167 64 74 168 65 74 169 63 74 170 70 76 174 67 76 175 69 76 176 69 78 180 63 78 181 65 78 182 13 0 183 12 3 184 0 1 185 12 3 186 14 5 187 2 4 188 14 5 189 15 7 190 3 6 191 15 7 192 16 9 193 4 8 194 16 9 195 17 11 196 5 10 197 17 11 198 18 14 199 6 12 200 19 13 201 7 16 202 6 12 203 20 15 204 8 18 205 7 16 206 21 17 207 9 20 208 8 18 209 22 19 210 10 22 211 9 20 212 23 21 213 47 23 214 10 22 215 13 0 216 37 2 217 47 23 218 31 24 219 32 43 220 62 25 221 1 27 222 36 30 223 25 28 224 36 30 225 38 32 226 26 31 227 38 32 228 39 34 229 27 33 230 39 34 231 40 36 232 28 35 233 40 36 234 41 38 235 29 37 236 41 38 237 42 40 238 30 26 239 43 39 240 31 24 241 30 26 242 44 41 243 32 43 244 31 24 245 45 42 246 33 45 247 32 43 248 46 44 249 34 47 250 33 45 251 11 46 252 35 48 253 34 47 254 1 27 255 24 29 256 35 48 257 36 30 258 1 27 259 49 49 260 38 32 261 36 30 262 48 50 263 39 34 264 38 32 265 50 51 266 40 36 267 39 34 268 51 52 269 41 38 270 40 36 271 52 53 272 42 40 273 41 38 274 53 54 275 55 56 276 43 39 277 42 40 278 56 57 279 44 41 280 43 39 281 57 58 282 45 42 283 44 41 284 58 59 285 46 44 286 45 42 287 59 60 288 11 46 289 46 44 290 49 49 291 1 27 292 11 46 293 48 61 294 49 79 295 37 2 296 50 62 297 48 61 298 0 1 299 51 63 300 50 62 301 2 4 302 52 64 303 51 63 304 3 6 305 53 65 306 52 64 307 4 8 308 54 66 309 53 65 310 5 10 311 7 16 312 55 67 313 54 66 314 8 18 315 56 68 316 55 67 317 9 20 318 57 69 319 56 68 320 10 22 321 58 70 322 57 69 323 47 23 324 59 71 325 58 70 326 37 2 327 49 79 328 59 71 329 34 47 330 60 73 331 61 72 332 32 43 333 33 45 334 61 72 335 35 48 336 24 29 337 60 73 338 25 28 339 26 31 340 60 73 341 26 31 342 27 33 343 61 72 344 61 72 345 27 33 346 28 35 347 62 25 348 28 35 349 29 37 350 64 74 351 66 74 352 65 74 353 70 76 357 68 76 358 67 76 359 69 78 363 67 78 364 63 78 365</p>
        </triangles>
        <triangles material="Material_001-material" count="4">
          <input semantic="VERTEX" source="#Mesh_004-mesh-vertices" offset="0"/>
          <input semantic="NORMAL" source="#Mesh_004-mesh-normals" offset="1"/>
          <input semantic="TEXCOORD" source="#Mesh_004-mesh-map-0" offset="2" set="0"/>
          <input semantic="TEXCOORD" source="#Mesh_004-mesh-map-1" offset="2" set="1"/>
          <p>66 75 171 69 75 172 65 75 173 68 77 177 63 77 178 67 77 179 66 75 354 70 75 355 69 75 356 68 77 360 64 77 361 63 77 362</p>
        </triangles>
      </mesh>
    </geometry>
  </library_geometries>
  <library_visual_scenes>
    <visual_scene id="Scene" name="Scene">
      <node id="Gauge" name="Gauge" type="NODE">
        <matrix sid="transform">1 0 0 0 0 1 0 0 0 0 1 0 0 0 0 1</matrix>
        <instance_geometry url="#Mesh_004-mesh" name="Gauge">
          <bind_material>
            <technique_common>
              <instance_material symbol="Plastic_Tank_Mat-material" target="#Plastic_Tank_Mat-material">
                <bind_vertex_input semantic="UVChannel_1" input_semantic="TEXCOORD" input_set="0"/>
                <bind_vertex_input semantic="UVMap" input_semantic="TEXCOORD" input_set="1"/>
              </instance_material>
              <instance_material symbol="Material_001-material" target="#Material_001-material">
                <bind_vertex_input semantic="UVChannel_1" input_semantic="TEXCOORD" input_set="0"/>
                <bind_vertex_input semantic="UVMap" input_semantic="TEXCOORD" input_set="1"/>
              </instance_material>
            </technique_common>
          </bind_material>
        </instance_geometry>
      </node>
    </visual_scene>
  </library_visual_scenes>
  <scene>
    <instance_visual_scene url="#Scene"/>
  </scene>
</COLLADA>