<?xml version="1.0" encoding="utf-8"?>
<COLLADA xmlns="http://www.collada.org/2005/11/COLLADASchema" version="1.4.1" xmlns:xsi="http://www.w3.org/2001/XMLSchema-instance">
  <asset>
    <contributor>
      <author>Blender User</author>
      <authoring_tool>Blender 2.93.8 commit date:2022-02-01, commit time:21:14, hash:09da7f489ad9</authoring_tool>
    </contributor>
    <created>2022-02-18T10:21:42</created>
    <modified>2022-02-18T10:21:42</modified>
    <unit name="meter" meter="1"/>
    <up_axis>Z_UP</up_axis>
  </asset>
  <library_effects>
    <effect id="Metal-effect">
      <profile_COMMON>
        <newparam sid="Metal038_1K_Color_png-surface">
          <surface type="2D">
            <init_from>Metal038_1K_Color_png</init_from>
          </surface>
        </newparam>
        <newparam sid="Metal038_1K_Color_png-sampler">
          <sampler2D>
            <source>Metal038_1K_Color_png-surface</source>
          </sampler2D>
        </newparam>
        <technique sid="common">
          <lambert>
            <emission>
              <color sid="emission">0 0 0 1</color>
            </emission>
            <diffuse>
              <texture texture="Metal038_1K_Color_png-sampler" texcoord="UVMap"/>
            </diffuse>
            <index_of_refraction>
              <float sid="ior">1.45</float>
            </index_of_refraction>
          </lambert>
        </technique>
      </profile_COMMON>
    </effect>
    <effect id="Wood-effect">
      <profile_COMMON>
        <newparam sid="Wood035_1K_Color_png-surface">
          <surface type="2D">
            <init_from>Wood035_1K_Color_png</init_from>
          </surface>
        </newparam>
        <newparam sid="Wood035_1K_Color_png-sampler">
          <sampler2D>
            <source>Wood035_1K_Color_png-surface</source>
          </sampler2D>
        </newparam>
        <technique sid="common">
          <lambert>
            <emission>
              <color sid="emission">0 0 0 1</color>
            </emission>
            <diffuse>
              <texture texture="Wood035_1K_Color_png-sampler" texcoord="UVMap"/>
            </diffuse>
            <index_of_refraction>
              <float sid="ior">1.45</float>
            </index_of_refraction>
          </lambert>
        </technique>
      </profile_COMMON>
    </effect>
  </library_effects>
  <library_images>
    <image id="Metal038_1K_Color_png" name="Metal038_1K_Color_png">
      <init_from>Metal038_1K_Color.png</init_from>
    </image>
    <image id="Wood035_1K_Color_png" name="Wood035_1K_Color_png">
      <init_from>Wood035_1K_Color.png</init_from>
    </image>
  </library_images>
  <library_materials>
    <material id="Metal-material" name="Metal">
      <instance_effect url="#Metal-effect"/>
    </material>
    <material id="Wood-material" name="Wood">
      <instance_effect url="#Wood-effect"/>
    </material>
  </library_materials>
  <library_geometries>
    <geometry id="Cube-mesh" name="Cube">
      <mesh>
        <source id="Cube-mesh-positions">
          <float_array id="Cube-mesh-positions-array" count="432">0.05604761 9.90847e-4 0.03211253 -0.05604761 9.90847e-4 0.03211253 0.00560373 7.97739e-4 -0.01634776 0.00560373 0.001598715 -0.01634776 -0.00560373 0.001598715 -0.01634776 -0.00560373 7.97739e-4 -0.01634776 -0.03541296 0.004891633 0.01768571 0.03541296 0.004891633 0.01768571 -0.03541296 0.006226778 0.01768571 0.03541296 0.006226778 0.01768571 -0.04985642 0.003867745 0.02379941 0.04985642 0.003867745 0.02379941 -0.03541296 0.004968643 -0.003212213 -0.04985642 0.004573583 0.02379941 0.04985642 0.004573583 0.02379941 0.03541296 0.004968643 -0.003212213 -0.03541296 0.006303787 -0.003212213 0.03541296 0.006303787 -0.003212213 0.02110087 0.004953086 -0.001495838 0.02110087 0.00490719 0.01258063 -0.02110087 0.00490719 0.01258063 -0.02110087 0.004953086 -0.001495838 -0.02050834 0.002883195 -0.009779989 -0.02050834 0.003684163 -0.009779989 0.02050834 0.003684163 -0.009779989 0.02050834 0.002883195 -0.009779989 0.002792179 0.004201352 -0.007589638 0 0.004662752 -0.006136476 0.002080976 0.004432082 -0.006863057 0.001094281 0.004600942 -0.006331145 -0.002792179 0.004201352 -0.007589638 -0.001094281 0.004600942 -0.006331145 -0.002080976 0.004432082 -0.006863057 -0.002889811 0.002818286 -0.01194542 -2.33145e-4 0.002348899 -0.0134235 -0.002198159 0.002583563 -0.01268446 -0.001225769 0.002411782 -0.01322549 2.33145e-4 0.002348899 -0.0134235 0.002889811 0.002818286 -0.01194542 0.001225769 0.002411782 -0.01322549 0.002198159 0.002583563 -0.01268446 0.002889811 0.002373933 -0.01194542 2.33145e-4 0.001904547 -0.0134235 0.002198159 0.00213921 -0.01268446 0.001225769 0.00196743 -0.01322549 -2.33145e-4 0.001904547 -0.0134235 -0.002889811 0.002373933 -0.01194542 -0.001225769 0.00196743 -0.01322549 -0.002198159 0.00213921 -0.01268446 -0.002792179 0.003756999 -0.007589638 0 0.004218399 -0.006136476 -0.002080976 0.003987729 -0.006863057 -0.001094281 0.004156589 -0.006331145 0.002792179 0.003756999 -0.007589638 0.001094281 0.004156589 -0.006331145 0.002080976 0.003987729 -0.006863057 -0.003316283 0.002592146 -0.01125812 -0.003277242 0.003522932 -0.008326828 -0.00364679 0.002888619 -0.01032435 -0.003632485 0.00322932 -0.009251415 -0.003277242 0.003967285 -0.008326828 -0.003316283 0.003036499 -0.01125812 -0.003632485 0.003673672 -0.009251415 -0.00364679 0.003332972 -0.01032435 0.003316283 0.003036499 -0.01125812 0.003277242 0.003967285 -0.008326828 0.00364679 0.003332972 -0.01032435 0.003632485 0.003673672 -0.009251415 0.003277242 0.003522932 -0.008326828 0.003316283 0.002592146 -0.01125812 0.003632485 0.00322932 -0.009251415 0.00364679 0.002888619 -0.01032435 0.007188558 -9.55692e-4 -1.09354e-4 0.007188558 -0.001306056 0.003084063 -0.007188558 -0.001306056 0.003084063 -0.007188558 -9.55692e-4 -1.09354e-4 0.01414471 0.002727806 -9.61151e-5 -0.01414471 0.002727806 -9.61155e-5 -0.01414471 0.00268191 0.009430766 0.01414471 0.00268191 0.009430766 0.007433712 0.001097917 -9.61151e-5 -0.007433712 0.001356482 0.009417533 -0.007433712 0.001097917 -9.61155e-5 0.007433712 0.001356482 0.009417533 -0.0323624 -0.001306056 0.02572041 0.0323624 -0.001306056 0.02572041 -0.03307086 0.001356482 0.02573364 0.03307086 0.001356482 0.02573364 -0.03968095 0.001356482 0.006084978 -0.03968095 -0.001306056 0.006065607 0.03968095 -0.001306056 0.006065607 0.03968095 0.001356482 0.006084978 -0.04015505 0.001356482 0.02008312 -0.04015505 -0.001306056 0.02006375 0.04015505 -0.001306056 0.02006375 0.04015505 0.001356482 0.02008312 0.007188558 -0.001306056 -2.71319e-4 -0.007188558 -0.001306056 -2.71319e-4 -0.007433712 0.001356482 -2.58081e-4 0.007433712 0.001356482 -2.58081e-4 -0.03586274 0.001356482 -2.38668e-4 -0.03586274 -0.001306056 -2.58081e-4 0.03586274 -0.001306056 -2.58081e-4 0.03586274 0.001356482 -2.38668e-4 -0.08984637 8.80023e-4 0.2277386 -0.07688266 8.80023e-4 0.2422551 -0.08885955 8.80023e-4 0.2332938 -0.08604937 8.80023e-4 0.2380033 -0.08184367 8.80023e-4 0.2411502 -0.07688266 -8.80023e-4 0.2422551 -0.08984637 -8.80023e-4 0.2277386 -0.08184367 -8.80023e-4 0.2411502 -0.08604937 -8.80023e-4 0.2380033 -0.08885955 -8.80023e-4 0.2332938 -0.07688266 8.80023e-4 0.003123581 -0.08984637 8.80023e-4 0.01764011 -0.08184367 8.80023e-4 0.004228591 -0.08604937 8.80023e-4 0.007375359 -0.08885955 8.80023e-4 0.0120849 -0.08984637 -8.80023e-4 0.01764011 -0.07688266 -8.80023e-4 0.003123581 -0.08885955 -8.80023e-4 0.0120849 -0.08604937 -8.80023e-4 0.007375359 -0.08184367 -8.80023e-4 0.004228591 0.07688266 8.80023e-4 0.2422551 0.08984637 8.80023e-4 0.2277386 0.08184367 8.80023e-4 0.2411502 0.08604937 8.80023e-4 0.2380033 0.08885955 8.80023e-4 0.2332938 0.08984637 -8.80023e-4 0.2277386 0.07688266 -8.80023e-4 0.2422551 0.08885955 -8.80023e-4 0.2332938 0.08604937 -8.80023e-4 0.2380033 0.08184367 -8.80023e-4 0.2411502 0.08984637 8.80023e-4 0.01764011 0.07688266 8.80023e-4 0.003123581 0.08885955 8.80023e-4 0.0120849 0.08604937 8.80023e-4 0.007375359 0.08184367 8.80023e-4 0.004228591 0.07688266 -8.80023e-4 0.003123581 0.08984637 -8.80023e-4 0.01764011 0.08184367 -8.80023e-4 0.004228591 0.08604937 -8.80023e-4 0.007375359 0.08885955 -8.80023e-4 0.0120849</float_array>
          <technique_common>
            <accessor source="#Cube-mesh-positions-array" count="144" stride="3">
              <param name="X" type="float"/>
              <param name="Y" type="float"/>
              <param name="Z" type="float"/>
            </accessor>
          </technique_common>
        </source>
        <source id="Cube-mesh-normals">
          <float_array id="Cube-mesh-normals-array" count="885">0 -1 0 -0.3898034 0 -0.9208982 0 0 -1 0 1 0 -1 0 0 0.8353704 0 -0.5496873 0.8353703 0 -0.5496877 0.8353706 0 -0.5496872 0 0.9271279 0.3747452 0 0.9857317 0.1683249 0 0.9271278 0.3747454 0.3898033 0 -0.9208982 -0.4032393 0 -0.9150946 -0.01476651 0.9398218 -0.3413459 0.4032396 0 -0.9150945 0 -0.9862653 -0.165169 0 -0.9450102 -0.3270409 1 0 0 0.8020169 0 -0.5973015 0 0.9183441 0.3957828 0 0.9183441 0.395783 -0.8020169 0 -0.5973015 0 0.9857317 0.1683248 0 0.9999932 0.003685593 6.96516e-4 -0.9999945 -0.003260195 0 0.006446182 -0.9999793 0 -0.9999954 -0.003048717 -2.27209e-4 -0.9999932 -0.003685534 0 -0.999959 -0.009067654 -0.8497136 0 0.5272445 0 0.9686312 -0.2485033 0 -0.968631 0.2485033 0.8497138 0 0.5272443 0.007209241 -0.9498307 0.3126815 0.00327748 -0.9492373 0.314544 0.007089853 -0.9498295 0.312688 0 -0.9352464 0.3539978 -0.02842879 -0.947914 0.3172553 -0.03231811 -0.9480448 0.3164911 -0.03138828 -0.9481553 0.3162536 0 0.87207 -0.4893812 -0.8353704 -6.10794e-7 -0.5496877 -0.005257308 -0.9554998 0.2949451 -0.01020264 -0.9565828 0.2912825 -0.01007646 -0.9566377 0.2911063 0.03137218 0.9580873 -0.2847536 0 1.9157e-6 1 -0.01238101 0.9607949 -0.2769837 0.01042014 0.9510552 -0.3088455 0.01277464 -0.9459623 0.324025 0.009853839 -0.9457553 0.3247303 0.012555 -0.9459741 0.3239991 0.4032391 -1.33834e-6 -0.9150946 -0.01829451 0.9476419 -0.3188108 -0.01676297 0.9435825 -0.3307129 -0.01287049 0.9304015 -0.3663162 -0.01287668 0.9304188 -0.3662719 -0.01286822 0.930384 -0.3663609 0.01277971 0.9300701 -0.36716 0.01676315 0.9435825 -0.3307129 0.01829451 0.947642 -0.3188101 0.02503204 0.9593259 -0.2811888 0.01716172 0.96145 -0.2744437 0.008588373 0.9646855 -0.2632644 -0.008588373 0.9646855 -0.2632644 -0.01716166 0.9614502 -0.274443 -0.02503204 0.959326 -0.2811887 -0.02207195 -0.9467301 0.3212708 -0.02207195 -0.9467302 0.3212708 -0.02207195 -0.9467302 0.3212708 -0.01414191 -0.9453983 0.3256101 -0.01414173 -0.9453983 0.3256102 -0.01414227 -0.9453984 0.3256099 -0.007281184 -0.9419754 0.335603 -0.007281541 -0.9419755 0.3356029 -0.007281422 -0.9419754 0.335603 0.007291376 -0.9419597 0.3356471 0.007281184 -0.9419754 0.335603 0.007291257 -0.9419597 0.3356472 0.01414167 -0.9453986 0.3256099 0.01414185 -0.9453985 0.3256097 0.01414227 -0.9453986 0.3256095 0.02207195 -0.9467301 0.3212708 0.02207195 -0.9467302 0.3212708 0.02207195 -0.9467302 0.3212708 0.003805041 -0.9541667 0.2992516 0.0038051 -0.9541667 0.2992516 0.003805041 -0.9541667 0.2992516 0.002808272 -0.9545925 0.2979018 0.002808332 -0.9545925 0.2979019 0.002808153 -0.9545924 0.2979018 0.001993596 -0.9562823 0.2924386 0.002039015 -0.95618 0.2927724 0.002038836 -0.95618 0.2927724 -0.001993298 -0.9562817 0.2924404 -0.001993596 -0.9562817 0.2924405 -0.001994073 -0.9562817 0.2924405 -0.002831876 -0.9546051 0.2978612 -0.002831816 -0.9546051 0.2978611 -0.002831637 -0.9546051 0.297861 -0.003735005 -0.9541472 0.2993146 -0.003735065 -0.9541472 0.2993147 -0.003735065 -0.9541472 0.2993147 0.008503615 -0.9521986 0.3053616 0.008503556 -0.9521985 0.3053617 0.008503615 -0.9521986 0.3053615 0.007822036 -0.9531062 0.3025352 0.007822036 -0.9531063 0.3025349 0.007822036 -0.9531062 0.3025352 0.008449435 -0.954003 0.2996782 0.008449435 -0.954003 0.2996781 0.008449375 -0.954003 0.299678 0.01018077 0.9519211 -0.3061741 0.01007407 0.9530181 -0.3027459 0.01020634 0.9540919 -0.2993404 -0.0102064 0.9540919 -0.2993406 -0.01007407 0.9530182 -0.3027459 -0.01018083 0.9519212 -0.306174 -0.008539497 -0.954012 0.299647 -0.008539497 -0.954012 0.299647 -0.008539438 -0.954012 0.2996469 -0.007822036 -0.9531066 0.3025341 -0.007822036 -0.9531065 0.3025344 -0.007822036 -0.9531065 0.3025344 -0.008503556 -0.9521986 0.3053612 -0.008503556 -0.9521987 0.3053611 -0.008503556 -0.9521987 0.3053611 0.1956407 0 0.9806756 0.4861868 0 0.873855 0.7301428 0 0.6832946 0.1913678 -0.002180755 -0.981516 0.1914473 6.97904e-4 -0.9815027 0.1914619 -1.8871e-5 -0.9815 0.4745056 1.82595e-6 -0.8802526 0.7146512 0 -0.6994811 -0.7301427 9.99846e-7 0.6832947 -0.4861868 -2.25967e-6 0.8738549 -0.1956408 2.9046e-6 0.9806757 -0.1862684 0.01212817 -0.982424 -0.1903312 -0.006065487 -0.9817011 -0.1914615 -1.23513e-5 -0.9815002 -0.4745068 -3.65191e-6 -0.8802519 -0.7146514 -1.78348e-6 -0.6994808 0.9334785 0 -0.3586333 0.9999113 0 -0.01331722 0.9426991 0 0.3336441 -0.9334788 -1.03321e-6 -0.3586327 -0.9999113 4.861e-7 -0.0133177 -0.9426991 5.45868e-7 0.3336441 0 -0.9940354 -0.109059 0 -1 0 0.3038497 -0.952709 -0.004589319 -0.3059639 -0.9520382 -0.003103852 0 -0.8167411 0.5770045 0 -0.5324416 -0.8464668 0.2359203 -0.9714137 0.02640289 -0.1937582 -0.981038 -0.004725813 0 -0.009988605 0.9999501 0 0 -1 0 -0.004973411 0.9999877 0 1 0 0.623552 -0.005699396 0.7817611 0 1 0 0.999427 2.46782e-4 -0.03384655 -0.9994271 2.46757e-4 -0.03384655 -0.5800388 -0.1583072 0.7990581 0 1 0 0 1 0 0 1 0 0.8560487 0.003768563 -0.5168816 6.82822e-4 0.007290601 -0.9999732 -6.82822e-4 0.007290601 -0.9999732 -0.8560487 0.003768444 -0.5168817 0 0.00497204 -0.9999877 -0.9845867 0 0.1748971 -0.8587394 0 0.5124127 -0.5990864 0 0.8006844 -0.217406 0 0.9760813 0.217411 0 -0.9760802 0.5990816 0 -0.800688 0.8587386 0 -0.5124139 0.9845871 0 -0.1748948 -0.217411 0 -0.9760802 -0.5990816 0 -0.800688 -0.8587386 0 -0.5124139 -0.9845871 0 -0.1748948 0.2174054 0 0.9760815 0.5990834 0 0.8006867 0.8587394 0 0.5124127 0.9845872 0 0.1748943 0 0 1 0 -1 0 0 -1 0 0 -1 0 0 -1 0 0 -1 0 -0.3898033 0 -0.9208982 0 1 0 0 1 0 0 1 0 0 1 0 0 1 0 0.8353701 0 -0.5496879 0.3898034 0 -0.9208982 -0.4032396 0 -0.9150945 -0.01042008 0.9510553 -0.3088452 0.4032394 0 -0.9150946 0 -0.9862654 -0.165169 0 -0.9450103 -0.3270408 0 0.9999933 0.003685593 2.27112e-4 -0.9999933 -0.003685534 0 0.006446182 -0.9999793 0 -0.9999954 -0.003048717 -6.96444e-4 -0.9999945 -0.003260195 0 -0.999959 -0.009067654 -0.8497139 0 0.5272441 0 0.9686309 -0.248504 0.8497133 -5.96773e-7 0.5272451 0.005137622 -0.9555308 0.2948468 0.01009535 -0.956666 0.2910128 0.0102477 -0.9566389 0.2910965 0 -0.9352459 0.3539987 -0.0127747 -0.9459623 0.324025 -0.01256805 -0.9460048 0.3239092 -0.009853839 -0.9457553 0.3247303 -0.8353704 -2.31932e-6 -0.5496875 -0.007177591 -0.9497854 0.3128197 -0.007049798 -0.9497838 0.3128276 -0.003384649 -0.9491835 0.314705 0.01238107 0.9607949 -0.2769837 -0.4032389 0 -0.9150948 -0.03137308 0.9580871 -0.2847541 0.01476651 0.9398218 -0.341346 0.02842891 -0.9479142 0.3172549 0.0313884 -0.9481554 0.3162531 0.03231829 -0.948045 0.3164907 0.4032394 -1.11543e-6 -0.9150946 0.1956406 -2.48422e-6 0.9806757 0.4861871 9.09467e-7 0.8738547 0.7301427 0 0.6832947 0.1863015 0.01216733 -0.9824173 0.1915096 -8.25068e-6 -0.9814907 0.1903323 -0.006061375 -0.9817011 0.4745067 0 -0.8802519 0.7146513 0 -0.699481 -0.730143 0 0.6832944 -0.4861873 3.67864e-6 0.8738546 -0.1956406 0 0.9806757 -0.1913216 -0.002174437 -0.9815251 -0.1914623 -1.88675e-5 -0.9815 -0.1914478 6.97895e-4 -0.9815026 -0.4745063 -3.6519e-6 -0.8802522 -0.714652 -4.02636e-6 -0.6994802 0.9334785 0 -0.3586335 0.9999113 0 -0.0133177 0.9426991 -5.45869e-7 0.3336441 -0.9334788 0 -0.3586328 -0.9999113 0 -0.0133177 -0.9426991 0 0.3336443 0 -0.9940354 -0.109059 0 -1 0 0.3059639 -0.9520382 -0.003103852 -0.3038496 -0.952709 -0.004589319 0 -0.8167411 0.5770043 0 -0.5324417 -0.8464667 0.1937582 -0.981038 -0.004725813 -0.2359203 -0.9714137 0.02640289 0 -0.009986758 0.9999502 0 -1.21983e-7 -1 0 -0.004971683 0.9999877 0 1 0 0.5800388 -0.1583072 0.7990581 0 1 0 0.9994271 2.46757e-4 -0.03384655 -0.999427 2.46782e-4 -0.03384655 -0.623552 -0.005699396 0.7817611 0 1 0 0 1 0 0.8560487 0.003768444 -0.5168817 4.6169e-4 0.004929542 -0.9999877 -4.6169e-4 0.004929542 -0.9999877 -0.8560487 0.003768563 -0.5168816 0 0.00497204 -0.9999877 -0.9845872 0 0.1748943 -0.5990834 0 0.8006867 -0.2174054 0 0.9760815 0.2174117 0 -0.97608 0.5990846 0 -0.8006858 0.9845867 0 -0.1748976 -0.2174117 0 -0.97608 -0.5990846 0 -0.8006858 -0.9845867 0 -0.1748976 0.217406 0 0.9760813 0.5990864 0 0.8006844 0.9845867 0 0.1748971</float_array>
          <technique_common>
            <accessor source="#Cube-mesh-normals-array" count="295" stride="3">
              <param name="X" type="float"/>
              <param name="Y" type="float"/>
              <param name="Z" type="float"/>
            </accessor>
          </technique_common>
        </source>
        <source id="Cube-mesh-map-0">
          <float_array id="Cube-mesh-map-0-array" count="1692">7.95181e-5 0.3209085 0.2775946 0.2993311 0.2991721 0.3209086 0.6277586 0.1706545 0.5781781 0.2637507 0.6254191 0.1698193 0.4333778 0.2261348 0.4320603 0.02397775 0.4355885 0.0239951 0.4078785 7.94763e-5 0.4294559 0.2775946 0.4078785 0.2991721 0.4308483 0.4760832 0.4331431 0.2739315 0.4343765 0.4761006 0.6422031 0.6664656 0.6410037 0.6720867 0.6393886 0.6665322 0.0402354 0.4990622 0.4526343 0.1076803 0.5534013 0.07916438 0.1136557 0.5889595 0.219831 0.5616637 0.2190789 0.5678942 0.5574253 0.560388 0.5052251 0.5950028 0.5535116 0.557462 0.5951833 0.4733707 0.5574253 0.560388 0.5535116 0.557462 0.04330497 0.2038063 0.1462874 0.1374304 1.29657e-4 0.2983827 0.415609 0.6156597 0.5069265 0.5992511 0.4158635 0.6201684 0.6254191 0.1698193 0.219831 0.5616637 0.1133015 0.586487 0.622895 0.09908115 0.1133015 0.586487 0.04600238 0.571122 0.2190789 0.5678942 0.3390201 0.6261018 0.3377896 0.6304424 0.04600238 0.571122 0.1133015 0.586487 0.1136557 0.5889595 0.04600238 0.571122 0.5534013 0.07916438 0.622895 0.09908115 0.622895 0.09908115 0.6277586 0.1706545 0.6254191 0.1698193 0.08813297 0.4059334 0.3646311 1.29657e-4 0.4526343 0.1076803 0.5845453 0.2641662 0.6231 0.3995364 0.5781781 0.2637507 0.3390201 0.6261018 0.3243193 0.5099849 0.3877896 0.5748489 0.44234 0.5051669 0.4718005 0.4773268 0.4784265 0.4769292 0.5781781 0.2637507 0.3243193 0.5099849 0.219831 0.5616637 0.6231 0.3995364 0.5070794 0.3630368 0.5781781 0.2637507 0.3390201 0.6261018 0.5578656 0.4383527 0.6231 0.3995364 0.4321778 0.9760049 0.4344761 0.773854 0.435706 0.9760224 0.6317811 0.5943862 0.6333346 0.5994756 0.6305201 0.5995423 0.152217 0.04898416 0.1334718 0.09210467 0.09015834 0.09993523 0.3390201 0.6261018 0.6231 0.3995364 0.4914093 0.528052 0.6343458 0.6421708 0.633035 0.647328 0.6315313 0.6422374 0.5951833 0.4733707 0.5109109 0.5246186 0.6231 0.3995364 0.5052251 0.5950028 0.5199958 0.5619782 0.5535116 0.557462 0.5052251 0.5950028 0.4951799 0.5645992 0.4998912 0.566214 0.3646311 1.29657e-4 1.29657e-4 0.2983827 0.168914 0.1329886 0.6385685 0.569278 0.6400327 0.574836 0.6372182 0.5749027 0.415609 0.6156597 0.483507 0.5462716 0.4841803 0.5512158 0.152217 0.04898416 0.1635334 0.08848518 0.1578964 0.08644139 0.6231 0.3995364 0.5996122 0.4746709 0.5951833 0.4733707 0.6280179 0.6194835 0.6309024 0.6223704 0.6280879 0.622437 0.09015834 0.09993523 0.1266393 0.1187366 0.04330497 0.2038063 0.2635585 0.02366518 0.1779046 0.1115561 0.1770645 0.1053149 0.5535116 0.557462 0.5263445 0.5402803 0.5951833 0.4733707 0.3390201 0.6261018 0.4158635 0.6201684 0.3377896 0.6304424 0.1462874 0.1374304 0.1531644 0.1385208 1.29657e-4 0.2983827 0.1531644 0.1385208 0.1604712 0.1374459 1.29657e-4 0.2983827 0.1604712 0.1374459 0.168914 0.1329886 1.29657e-4 0.2983827 0.168914 0.1329886 0.1749656 0.1255422 0.3646311 1.29657e-4 0.1749656 0.1255422 0.177599 0.1185134 0.3646311 1.29657e-4 0.177599 0.1185134 0.1779046 0.1115561 0.3646311 1.29657e-4 0.1578964 0.08644139 0.1505349 0.08530628 0.152217 0.04898416 0.1505349 0.08530628 0.1425449 0.08659946 0.152217 0.04898416 0.1425449 0.08659946 0.1360696 0.08997833 0.152217 0.04898416 0.1334718 0.09210467 0.1288879 0.09779137 0.09015834 0.09993523 0.1288879 0.09779137 0.1260647 0.1053737 0.09015834 0.09993523 0.1260647 0.1053737 0.1257483 0.1128181 0.09015834 0.09993523 0.4998912 0.566214 0.5059536 0.5671998 0.5052251 0.5950028 0.5059536 0.5671998 0.512468 0.5662788 0.5052251 0.5950028 0.512468 0.5662788 0.5178129 0.5636606 0.5052251 0.5950028 0.5199958 0.5619782 0.5238686 0.5574564 0.5535116 0.557462 0.5238686 0.5574564 0.5263412 0.551397 0.5535116 0.557462 0.5263412 0.551397 0.5268185 0.5452952 0.5535116 0.557462 0.5109109 0.5246186 0.5050498 0.5235051 0.6231 0.3995364 0.5050498 0.5235051 0.4988247 0.5242777 0.6231 0.3995364 0.4988247 0.5242777 0.4914093 0.528052 0.6231 0.3995364 0.4914093 0.528052 0.4860666 0.5344639 0.3390201 0.6261018 0.4860666 0.5344639 0.483787 0.5403685 0.3390201 0.6261018 0.483787 0.5403685 0.483507 0.5462716 0.3390201 0.6261018 0.5263445 0.5402803 0.5244222 0.5346195 0.5951833 0.4733707 0.5244222 0.5346195 0.520491 0.52955 0.5951833 0.4733707 0.520491 0.52955 0.515615 0.526427 0.5951833 0.4733707 0.1770645 0.1053149 0.1746879 0.09852755 0.2635585 0.02366518 0.1746879 0.09852755 0.1697356 0.09236407 0.2635585 0.02366518 0.1697356 0.09236407 0.1635334 0.08848518 0.2635585 0.02366518 0.1266393 0.1187366 0.1291909 0.1255927 0.04330497 0.2038063 0.1291909 0.1255927 0.1342059 0.1316808 0.04330497 0.2038063 0.1342059 0.1316808 0.1403366 0.1353803 0.04330497 0.2038063 0.4841803 0.5512158 0.4861204 0.5565815 0.415609 0.6156597 0.4861204 0.5565815 0.4901397 0.5614796 0.415609 0.6156597 0.4901397 0.5614796 0.4951799 0.5645992 0.415609 0.6156597 0.6309024 0.6223704 0.628638 0.6288388 0.6280879 0.622437 0.6314525 0.6287721 0.6298931 0.6358614 0.628638 0.6288388 0.6327076 0.6357948 0.6315313 0.6422374 0.6298931 0.6358614 0.6410036 0.5486289 0.6432598 0.5415314 0.6438181 0.5485623 0.6404454 0.5415981 0.642022 0.5344568 0.6432598 0.5415314 0.6392074 0.5345235 0.6404081 0.5280517 0.642022 0.5344568 0.6305201 0.5995423 0.632 0.6059221 0.6291855 0.6059888 0.6291855 0.6059888 0.6310788 0.6129962 0.6282644 0.6130629 0.6282644 0.6130629 0.6308324 0.6194169 0.6280179 0.6194835 0.6410036 0.5486289 0.6435933 0.5556117 0.6407788 0.5556784 0.6407788 0.5556784 0.6426918 0.5627371 0.6398773 0.5628037 0.6398773 0.5628037 0.641383 0.5692113 0.6385685 0.569278 0.6393886 0.6665322 0.6401949 0.6602359 0.6422031 0.6664656 0.6373804 0.6603025 0.6378761 0.6534906 0.6401949 0.6602359 0.6350616 0.6535573 0.6358495 0.6472613 0.6378761 0.6534906 0.6372182 0.5749027 0.6383217 0.5811539 0.6355072 0.5812205 0.6355072 0.5812205 0.6363248 0.5880014 0.6335104 0.588068 0.6335104 0.588068 0.6345955 0.5943196 0.6317811 0.5943862 0.4563688 0.486088 0.4441219 0.4980082 0.4600033 0.4846619 0.6678881 0.2156335 0.8214106 0.461737 0.6721459 0.3171262 0.6721459 0.3171262 0.6773829 0.4938209 0.6474124 0.3195908 0.6678881 0.2156335 0.667109 0.0386613 0.7050825 0.01677316 0.3877896 0.5748489 0.3972107 0.5167663 0.4143509 0.5351856 0.5578656 0.4383527 0.4994276 0.4354421 0.5070794 0.3630368 0.5070794 0.3630368 0.3972107 0.5167663 0.3243193 0.5099849 0.3877896 0.5748489 0.5142508 0.4558933 0.5578656 0.4383527 0.4143509 0.5351856 0.4328574 0.4958729 0.44234 0.5051669 0.5142508 0.4558933 0.4715796 0.4658473 0.4994276 0.4354421 0.4994276 0.4354421 0.4328574 0.4958729 0.3972107 0.5167663 0.4143509 0.5351856 0.4784265 0.4769292 0.5142508 0.4558933 0.8349351 0.4701676 0.8226367 0.06853377 0.8349351 0.06147313 0.9998704 0.04501271 0.8753826 0.003133058 0.9640704 1.29657e-4 0.8349351 0.06147313 0.7941797 0.01368975 0.8064918 0.007315814 0.9998704 0.04501271 0.8564533 0.3016374 0.8564534 0.2074419 0.7013623 0.003511786 0.7941797 0.01368975 0.7050825 0.01677316 0.7136498 0.5277924 0.7930579 0.5093743 0.799916 0.5205338 0.8214106 0.461737 0.7163146 0.5136938 0.6721459 0.3171262 0.8349351 0.4701676 0.7930579 0.5093743 0.8214106 0.461737 0.9998704 0.464067 0.8753823 0.5059467 0.8564533 0.3016374 0.8564534 0.2074419 0.8353176 0.02732431 0.8753826 0.003133058 0.8226367 0.06853377 0.7050825 0.01677316 0.7941797 0.01368975 0.8564533 0.3016374 0.8353172 0.4817554 0.8351944 0.3016374 0.7050825 0.01677316 0.6552442 0.02921313 0.7013623 0.003511786 0.667109 0.0386613 0.6280179 0.2120558 0.6552442 0.02921313 0.6322979 0.3230046 0.6773829 0.4938209 0.6658734 0.5038537 0.7163146 0.5136938 0.6658734 0.5038537 0.6773829 0.4938209 0.8564534 0.2074419 0.8351944 0.3016374 0.8351944 0.2074419 0.6474124 0.3195908 0.6678881 0.2156335 0.6721459 0.3171262 0.6322979 0.3230046 0.6432981 0.2146394 0.6474124 0.3195908 0.4343765 0.4761006 0.4307897 0.4880324 0.4308483 0.4760832 0.4343178 0.4880497 0.4307309 0.4999815 0.4307897 0.4880324 0.4342591 0.4999989 0.4306722 0.5119308 0.4307309 0.4999815 0.4342004 0.5119481 0.4306135 0.5238798 0.4306722 0.5119308 0.4320603 0.02397775 0.4356472 0.01204591 0.4355885 0.0239951 0.432119 0.01202857 0.4357059 9.6787e-5 0.4356472 0.01204591 0.4320597 0.9999032 0.435647 0.9879715 0.4355879 0.9999206 0.4321188 0.987954 0.435706 0.9760224 0.435647 0.9879715 0.4333778 0.2261348 0.4297909 0.2380667 0.4298496 0.2261175 0.4333192 0.238084 0.4297323 0.2500159 0.4297909 0.2380667 0.4332605 0.2500331 0.4296736 0.261965 0.4297323 0.2500159 0.4332018 0.2619823 0.4296149 0.2739141 0.4296736 0.261965 0.4347114 0.7260575 0.4311244 0.7379891 0.4311832 0.72604 0.4346526 0.7380065 0.4310656 0.7499383 0.4311244 0.7379891 0.4345937 0.7499556 0.4310067 0.7618875 0.4310656 0.7499383 0.4345349 0.7619048 0.4309478 0.7738366 0.4310067 0.7618875 0.4311832 0.72604 0.4341417 0.5238972 0.4347114 0.7260575 0.2991721 0.3209086 0.2991721 0.7071301 7.94763e-5 0.7071301 0.2991721 0.7071301 0.2975295 0.7153875 0.2775946 0.7287075 0.2775946 0.7287075 0.2975295 0.7153875 0.2928521 0.7223877 0.2928521 0.7223877 0.2858519 0.727065 0.2775946 0.7287075 0.2775946 0.7287075 0.02165687 0.7287076 0.2991721 0.7071301 0.02165687 0.7287076 0.01339954 0.727065 0.006399333 0.7223876 0.006399333 0.7223876 0.001721918 0.7153874 0.02165687 0.7287076 0.001721918 0.7153874 7.94763e-5 0.7071301 0.02165687 0.7287076 7.94763e-5 0.7071301 7.95181e-5 0.3209085 0.2991721 0.3209086 7.95181e-5 0.3209085 0.001721978 0.3126512 0.02165693 0.299331 0.2775946 0.2993311 7.95181e-5 0.3209085 0.02165693 0.299331 0.001721978 0.3126512 0.006399393 0.3056509 0.02165693 0.299331 0.006399393 0.3056509 0.0133996 0.3009735 0.02165693 0.299331 0.2775946 0.2993311 0.285852 0.3009736 0.2928522 0.305651 0.2928522 0.305651 0.2975296 0.3126512 0.2775946 0.2993311 0.2975296 0.3126512 0.2991721 0.3209086 0.2775946 0.2993311 0.2991721 0.7071301 0.02165687 0.7287076 7.94763e-5 0.7071301 0.6277586 0.1706545 0.5845453 0.2641662 0.5781781 0.2637507 0.4333778 0.2261348 0.4298496 0.2261175 0.4320603 0.02397775 0.4078785 0.2991721 0.02165699 0.2991721 0.02165687 7.95233e-5 0.02165699 0.2991721 0.0133996 0.2975296 7.95181e-5 0.2775946 7.95181e-5 0.2775946 0.0133996 0.2975296 0.006399393 0.2928522 0.006399393 0.2928522 0.001721918 0.285852 7.95181e-5 0.2775946 7.95181e-5 0.2775946 7.94763e-5 0.02165693 0.02165699 0.2991721 7.94763e-5 0.02165693 0.001721918 0.0133996 0.006399333 0.006399333 0.006399333 0.006399333 0.01339954 0.001721978 7.94763e-5 0.02165693 0.01339954 0.001721978 0.02165687 7.95233e-5 7.94763e-5 0.02165693 0.02165687 7.95233e-5 0.4078785 7.94763e-5 0.4078785 0.2991721 0.4078785 7.94763e-5 0.4161358 0.001721918 0.4294559 0.02165693 0.4294559 0.2775946 0.4078785 7.94763e-5 0.4294559 0.02165693 0.4161358 0.001721918 0.4231361 0.006399393 0.4294559 0.02165693 0.4231361 0.006399393 0.4278134 0.0133996 0.4294559 0.02165693 0.4294559 0.2775946 0.4278134 0.2858519 0.4231361 0.2928522 0.4231361 0.2928522 0.4161359 0.2975295 0.4294559 0.2775946 0.4161359 0.2975295 0.4078785 0.2991721 0.4294559 0.2775946 0.02165699 0.2991721 7.94763e-5 0.02165693 0.02165687 7.95233e-5 0.4308483 0.4760832 0.4296149 0.2739141 0.4331431 0.2739315 0.6422031 0.6664656 0.6438181 0.6720201 0.6410037 0.6720867 0.0402354 0.4990622 0.08813297 0.4059334 0.4526343 0.1076803 0.1136557 0.5889595 0.1133015 0.586487 0.219831 0.5616637 0.5574253 0.560388 0.5069265 0.5992511 0.5052251 0.5950028 0.5951833 0.4733707 0.5996122 0.4746709 0.5574253 0.560388 0.04330497 0.2038063 0.1403366 0.1353803 0.1462874 0.1374304 0.415609 0.6156597 0.5052251 0.5950028 0.5069265 0.5992511 0.6254191 0.1698193 0.5781781 0.2637507 0.219831 0.5616637 0.622895 0.09908115 0.6254191 0.1698193 0.1133015 0.586487 0.2190789 0.5678942 0.219831 0.5616637 0.3390201 0.6261018 0.04600238 0.571122 0.0402354 0.4990622 0.5534013 0.07916438 0.08813297 0.4059334 1.29657e-4 0.2983827 0.3646311 1.29657e-4 0.5845453 0.2641662 0.6277586 0.3991286 0.6231 0.3995364 0.3390201 0.6261018 0.219831 0.5616637 0.3243193 0.5099849 0.44234 0.5051669 0.4441219 0.4980082 0.4718005 0.4773268 0.5781781 0.2637507 0.5070794 0.3630368 0.3243193 0.5099849 0.6231 0.3995364 0.5578656 0.4383527 0.5070794 0.3630368 0.3390201 0.6261018 0.3877896 0.5748489 0.5578656 0.4383527 0.4321778 0.9760049 0.4309478 0.7738366 0.4344761 0.773854 0.6317811 0.5943862 0.6345955 0.5943196 0.6333346 0.5994756 0.152217 0.04898416 0.1360696 0.08997833 0.1334718 0.09210467 0.6343458 0.6421708 0.6358495 0.6472613 0.633035 0.647328 0.5951833 0.4733707 0.515615 0.526427 0.5109109 0.5246186 0.5052251 0.5950028 0.5178129 0.5636606 0.5199958 0.5619782 0.5052251 0.5950028 0.415609 0.6156597 0.4951799 0.5645992 0.6385685 0.569278 0.641383 0.5692113 0.6400327 0.574836 0.415609 0.6156597 0.3390201 0.6261018 0.483507 0.5462716 0.152217 0.04898416 0.2635585 0.02366518 0.1635334 0.08848518 0.6231 0.3995364 0.6277586 0.3991286 0.5996122 0.4746709 0.6280179 0.6194835 0.6308324 0.6194169 0.6309024 0.6223704 0.09015834 0.09993523 0.1257483 0.1128181 0.1266393 0.1187366 0.2635585 0.02366518 0.3646311 1.29657e-4 0.1779046 0.1115561 0.5535116 0.557462 0.5268185 0.5452952 0.5263445 0.5402803 0.3390201 0.6261018 0.415609 0.6156597 0.4158635 0.6201684 0.6309024 0.6223704 0.6314525 0.6287721 0.628638 0.6288388 0.6314525 0.6287721 0.6327076 0.6357948 0.6298931 0.6358614 0.6327076 0.6357948 0.6343458 0.6421708 0.6315313 0.6422374 0.6410036 0.5486289 0.6404454 0.5415981 0.6432598 0.5415314 0.6404454 0.5415981 0.6392074 0.5345235 0.642022 0.5344568 0.6392074 0.5345235 0.6375936 0.5281184 0.6404081 0.5280517 0.6305201 0.5995423 0.6333346 0.5994756 0.632 0.6059221 0.6291855 0.6059888 0.632 0.6059221 0.6310788 0.6129962 0.6282644 0.6130629 0.6310788 0.6129962 0.6308324 0.6194169 0.6410036 0.5486289 0.6438181 0.5485623 0.6435933 0.5556117 0.6407788 0.5556784 0.6435933 0.5556117 0.6426918 0.5627371 0.6398773 0.5628037 0.6426918 0.5627371 0.641383 0.5692113 0.6393886 0.6665322 0.6373804 0.6603025 0.6401949 0.6602359 0.6373804 0.6603025 0.6350616 0.6535573 0.6378761 0.6534906 0.6350616 0.6535573 0.633035 0.647328 0.6358495 0.6472613 0.6372182 0.5749027 0.6400327 0.574836 0.6383217 0.5811539 0.6355072 0.5812205 0.6383217 0.5811539 0.6363248 0.5880014 0.6335104 0.588068 0.6363248 0.5880014 0.6345955 0.5943196 0.4563688 0.486088 0.4718005 0.4773268 0.4441219 0.4980082 0.6678881 0.2156335 0.8226367 0.06853377 0.8214106 0.461737 0.6721459 0.3171262 0.7163146 0.5136938 0.6773829 0.4938209 0.6678881 0.2156335 0.6432981 0.2146394 0.667109 0.0386613 0.3877896 0.5748489 0.3243193 0.5099849 0.3972107 0.5167663 0.5578656 0.4383527 0.5142508 0.4558933 0.4994276 0.4354421 0.5070794 0.3630368 0.4994276 0.4354421 0.3972107 0.5167663 0.3877896 0.5748489 0.4143509 0.5351856 0.5142508 0.4558933 0.4143509 0.5351856 0.3972107 0.5167663 0.4328574 0.4958729 0.5142508 0.4558933 0.4784265 0.4769292 0.4715796 0.4658473 0.4994276 0.4354421 0.4715796 0.4658473 0.4328574 0.4958729 0.4143509 0.5351856 0.44234 0.5051669 0.4784265 0.4769292 0.8349351 0.4701676 0.8214106 0.461737 0.8226367 0.06853377 0.9998704 0.04501271 0.8564534 0.2074419 0.8753826 0.003133058 0.8349351 0.06147313 0.8226367 0.06853377 0.7941797 0.01368975 0.9998704 0.04501271 0.9998704 0.464067 0.8564533 0.3016374 0.7013623 0.003511786 0.7938118 1.29657e-4 0.7941797 0.01368975 0.7136498 0.5277924 0.7163146 0.5136938 0.7930579 0.5093743 0.8214106 0.461737 0.7930579 0.5093743 0.7163146 0.5136938 0.8349351 0.4701676 0.799916 0.5205338 0.7930579 0.5093743 0.9998704 0.464067 0.9640703 0.5089502 0.8753823 0.5059467 0.8564534 0.2074419 0.8351944 0.2074419 0.8353176 0.02732431 0.8226367 0.06853377 0.6678881 0.2156335 0.7050825 0.01677316 0.8564533 0.3016374 0.8753823 0.5059467 0.8353172 0.4817554 0.7050825 0.01677316 0.667109 0.0386613 0.6552442 0.02921313 0.667109 0.0386613 0.6432981 0.2146394 0.6280179 0.2120558 0.6322979 0.3230046 0.6474124 0.3195908 0.6773829 0.4938209 0.7163146 0.5136938 0.7136498 0.5277924 0.6658734 0.5038537 0.8564534 0.2074419 0.8564533 0.3016374 0.8351944 0.3016374 0.6474124 0.3195908 0.6432981 0.2146394 0.6678881 0.2156335 0.6322979 0.3230046 0.6280179 0.2120558 0.6432981 0.2146394 0.4343765 0.4761006 0.4343178 0.4880497 0.4307897 0.4880324 0.4343178 0.4880497 0.4342591 0.4999989 0.4307309 0.4999815 0.4342591 0.4999989 0.4342004 0.5119481 0.4306722 0.5119308 0.4342004 0.5119481 0.4341417 0.5238972 0.4306135 0.5238798 0.4320603 0.02397775 0.432119 0.01202857 0.4356472 0.01204591 0.432119 0.01202857 0.4321777 7.94763e-5 0.4357059 9.6787e-5 0.4320597 0.9999032 0.4321188 0.987954 0.435647 0.9879715 0.4321188 0.987954 0.4321778 0.9760049 0.435706 0.9760224 0.4333778 0.2261348 0.4333192 0.238084 0.4297909 0.2380667 0.4333192 0.238084 0.4332605 0.2500331 0.4297323 0.2500159 0.4332605 0.2500331 0.4332018 0.2619823 0.4296736 0.261965 0.4332018 0.2619823 0.4331431 0.2739315 0.4296149 0.2739141 0.4347114 0.7260575 0.4346526 0.7380065 0.4311244 0.7379891 0.4346526 0.7380065 0.4345937 0.7499556 0.4310656 0.7499383 0.4345937 0.7499556 0.4345349 0.7619048 0.4310067 0.7618875 0.4345349 0.7619048 0.4344761 0.773854 0.4309478 0.7738366 0.4311832 0.72604 0.4306135 0.5238798 0.4341417 0.5238972</float_array>
          <technique_common>
            <accessor source="#Cube-mesh-map-0-array" count="846" stride="2">
              <param name="S" type="float"/>
              <param name="T" type="float"/>
            </accessor>
          </technique_common>
        </source>
        <vertices id="Cube-mesh-vertices">
          <input semantic="POSITION" source="#Cube-mesh-positions"/>
        </vertices>
        <triangles material="Metal-material" count="206">
          <input semantic="VERTEX" source="#Cube-mesh-vertices" offset="0"/>
          <input semantic="NORMAL" source="#Cube-mesh-normals" offset="1"/>
          <input semantic="TEXCOORD" source="#Cube-mesh-map-0" offset="2" set="0"/>
          <p>13 1 3 6 1 4 10 1 5 60 5 15 49 6 16 57 7 17 14 8 18 8 9 19 13 10 20 14 11 21 7 11 22 9 11 23 4 2 24 2 2 25 5 2 26 22 12 27 4 12 28 5 12 29 24 13 30 26 13 31 17 13 32 25 14 33 3 14 34 24 14 35 10 15 36 7 15 37 11 15 38 1 16 39 11 16 40 0 16 41 9 17 42 15 17 43 17 17 44 0 18 45 11 18 46 14 18 47 0 19 48 13 10 49 1 20 50 1 21 51 13 21 52 10 21 53 9 22 54 16 23 55 8 9 56 8 4 57 12 4 58 6 4 59 15 24 60 19 24 61 18 24 62 80 25 63 75 25 64 82 25 65 6 26 66 19 26 67 7 26 68 12 27 69 20 27 70 6 27 71 15 28 72 21 28 73 12 28 74 69 29 78 38 29 79 41 29 80 4 30 81 37 30 82 3 30 83 15 31 84 12 31 85 50 31 86 33 32 87 56 32 88 46 32 89 22 33 90 49 34 91 12 35 92 2 36 93 45 36 94 5 36 95 2 37 96 69 38 97 41 39 98 16 40 99 17 40 100 27 40 101 53 41 102 65 41 103 68 41 104 25 42 105 53 43 106 68 44 107 4 45 108 61 45 109 33 45 110 12 12 111 23 12 112 22 12 113 42 46 114 34 46 115 45 46 116 3 47 117 64 47 118 24 47 119 23 48 120 30 48 121 60 48 122 5 49 123 56 50 124 22 51 125 15 52 126 24 52 127 17 52 128 26 53 129 28 53 130 17 53 131 28 54 132 29 54 133 17 54 134 29 55 135 27 56 136 17 57 137 27 58 138 31 58 139 16 58 140 31 59 141 32 59 142 16 59 143 32 60 144 30 60 145 16 60 146 33 61 147 35 61 148 4 61 149 35 62 150 36 62 151 4 62 152 36 63 153 34 63 154 4 63 155 37 64 156 39 64 157 3 64 158 39 65 159 40 65 160 3 65 161 40 66 162 38 66 163 3 66 164 41 67 165 43 68 166 2 69 167 43 70 168 44 71 169 2 72 170 44 73 171 42 74 172 2 75 173 45 76 174 47 77 175 5 78 176 47 79 177 48 80 178 5 81 179 48 82 180 46 83 181 5 84 182 49 85 183 51 86 184 12 87 185 51 88 186 52 89 187 12 90 188 52 91 189 50 92 190 12 93 191 50 94 192 54 95 193 15 96 194 54 97 195 55 98 196 15 99 197 55 100 198 53 101 199 15 102 200 56 103 201 58 104 202 22 105 203 58 106 204 59 107 205 22 108 206 59 109 207 57 110 208 22 111 209 60 112 210 62 112 211 23 112 212 62 113 213 63 113 214 23 113 215 63 114 216 61 114 217 23 114 218 64 115 219 66 115 220 24 115 221 66 116 222 67 116 223 24 116 224 67 117 225 65 117 226 24 117 227 68 118 228 70 119 229 25 120 230 70 121 231 71 122 232 25 123 233 71 124 234 69 125 235 25 126 236 34 127 237 47 127 238 45 127 239 36 128 240 48 128 241 47 128 242 35 129 243 46 129 244 48 129 245 50 130 246 31 131 247 27 132 248 52 133 249 32 133 250 31 133 251 51 134 252 30 134 253 32 134 254 41 135 255 40 135 256 43 135 257 43 136 258 39 136 259 44 136 260 44 137 261 37 137 262 42 137 263 50 138 264 29 139 265 54 140 266 54 141 267 28 141 268 55 141 269 55 142 270 26 142 271 53 142 272 57 143 273 62 143 274 60 143 275 59 144 276 63 144 277 62 144 278 58 145 279 61 145 280 63 145 281 68 146 282 67 146 283 70 146 284 70 147 285 66 147 286 71 147 287 71 148 288 64 148 289 69 148 290 74 149 291 72 149 292 73 149 293 73 0 294 84 0 295 74 0 296 74 150 297 101 150 298 97 150 299 73 0 300 102 0 301 90 0 302 18 151 303 79 151 304 76 151 305 21 152 306 78 152 307 20 152 308 20 153 309 79 153 310 19 153 311 18 154 312 77 154 313 21 154 314 76 155 315 83 155 316 80 155 317 77 156 318 81 156 319 78 156 320 78 157 321 83 157 322 79 157 323 76 158 324 82 158 325 77 158 326 86 159 327 85 159 328 87 159 329 86 160 330 88 160 331 92 160 332 87 161 333 94 161 334 95 161 335 86 162 336 83 162 337 81 162 338 91 163 339 94 163 340 90 163 341 88 164 342 93 164 343 92 164 344 84 0 345 89 0 346 74 0 347 86 165 348 93 165 349 84 165 350 87 166 351 91 166 352 83 166 353 81 167 354 100 167 355 88 167 356 85 0 357 90 0 358 94 0 359 83 168 360 103 168 361 99 168 362 90 169 363 103 169 364 91 169 365 102 170 366 99 170 367 103 170 368 98 171 369 101 171 370 100 171 371 89 172 372 100 172 373 101 172 374 81 3 375 99 3 376 98 3 377 97 0 378 73 0 379 74 0 380 98 173 381 96 173 382 97 173 383 13 196 486 8 196 487 6 196 488 60 5 546 30 202 547 49 6 548 14 8 549 9 22 550 8 9 551 14 203 552 11 203 553 7 203 554 4 2 555 3 2 556 2 2 557 22 204 558 23 204 559 4 204 560 24 205 561 65 205 562 26 205 563 25 206 564 2 206 565 3 206 566 10 207 567 6 207 568 7 207 569 1 208 570 10 208 571 11 208 572 9 17 573 7 17 574 15 17 575 0 19 576 14 8 577 13 10 578 9 22 579 17 209 580 16 23 581 8 4 582 16 4 583 12 4 584 15 210 585 7 210 586 19 210 587 80 211 588 72 211 589 75 211 590 6 212 591 20 212 592 19 212 593 12 213 594 21 213 595 20 213 596 15 214 597 18 214 598 21 214 599 69 215 603 64 215 604 38 215 605 4 216 606 34 216 607 37 216 608 33 217 609 61 217 610 56 217 611 22 218 612 57 219 613 49 220 614 2 221 615 42 221 616 45 221 617 2 222 618 25 223 619 69 224 620 53 225 621 26 225 622 65 225 623 25 226 624 15 227 625 53 228 626 4 229 627 23 229 628 61 229 629 12 230 630 16 230 631 23 230 632 42 190 633 37 190 634 34 190 635 3 231 636 38 231 637 64 231 638 23 232 639 16 232 640 30 232 641 5 233 642 46 234 643 56 235 644 15 236 645 25 236 646 24 236 647 34 237 648 36 237 649 47 237 650 36 238 651 35 238 652 48 238 653 35 239 654 33 239 655 46 239 656 50 240 657 52 241 658 31 242 659 52 243 660 51 243 661 32 243 662 51 244 663 49 244 664 30 244 665 41 245 666 38 245 667 40 245 668 43 246 669 40 246 670 39 246 671 44 247 672 39 247 673 37 247 674 50 248 675 27 249 676 29 250 677 54 251 678 29 251 679 28 251 680 55 252 681 28 252 682 26 252 683 57 253 684 59 253 685 62 253 686 59 254 687 58 254 688 63 254 689 58 255 690 56 255 691 61 255 692 68 256 693 65 256 694 67 256 695 70 257 696 67 257 697 66 257 698 71 258 699 66 258 700 64 258 701 74 259 702 75 259 703 72 259 704 73 0 705 85 0 706 84 0 707 74 0 708 89 0 709 101 0 710 73 260 711 96 260 712 102 260 713 18 261 714 19 261 715 79 261 716 21 262 717 77 262 718 78 262 719 20 263 720 78 263 721 79 263 722 18 264 723 76 264 724 77 264 725 76 265 726 79 265 727 83 265 728 77 266 729 82 266 730 81 266 731 78 267 732 81 267 733 83 267 734 76 268 735 80 268 736 82 268 737 86 269 738 84 269 739 85 269 740 86 270 741 81 270 742 88 270 743 87 271 744 85 271 745 94 271 746 86 272 747 87 272 748 83 272 749 91 273 750 95 273 751 94 273 752 88 274 753 89 274 754 93 274 755 84 0 756 93 0 757 89 0 758 86 275 759 92 275 760 93 275 761 87 276 762 95 276 763 91 276 764 81 277 765 98 277 766 100 277 767 85 0 768 73 0 769 90 0 770 83 167 771 91 167 772 103 167 773 90 278 774 102 278 775 103 278 776 102 279 777 96 279 778 99 279 779 98 280 780 97 280 781 101 280 782 89 281 783 88 281 784 100 281 785 81 3 786 83 3 787 99 3 788 97 0 789 96 0 790 73 0 791 98 282 792 99 282 793 96 282 794</p>
        </triangles>
        <triangles material="Wood-material" count="76">
          <input semantic="VERTEX" source="#Cube-mesh-vertices" offset="0"/>
          <input semantic="NORMAL" source="#Cube-mesh-normals" offset="1"/>
          <input semantic="TEXCOORD" source="#Cube-mesh-map-0" offset="2" set="0"/>
          <p>119 0 0 139 0 1 140 0 2 120 2 6 135 2 7 139 2 8 134 3 9 114 3 10 115 3 11 104 4 12 119 4 13 110 4 14 134 17 75 129 17 76 140 17 77 110 174 384 106 174 385 104 174 386 113 175 387 107 175 388 106 175 389 112 176 390 108 176 391 107 176 392 111 177 393 105 177 394 108 177 395 135 178 396 141 178 397 139 178 398 138 179 399 142 179 400 141 179 401 137 180 402 143 180 403 142 180 404 136 181 405 140 181 406 143 181 407 120 182 408 116 182 409 114 182 410 123 183 411 117 183 412 116 183 413 122 184 414 118 184 415 117 184 416 121 185 417 115 185 418 118 185 419 130 186 420 126 186 421 124 186 422 133 187 423 127 187 424 126 187 425 132 188 426 128 188 427 127 188 428 131 189 429 125 189 430 128 189 431 124 190 432 109 190 433 130 190 434 140 0 435 129 0 436 110 0 437 129 0 438 131 0 439 130 0 440 130 191 441 131 191 442 132 191 443 132 192 444 133 192 445 130 192 446 130 0 447 109 0 448 129 0 449 109 0 450 111 0 451 112 0 452 112 0 453 113 0 454 109 0 455 113 0 456 110 0 457 109 0 458 110 0 459 119 0 460 140 0 461 119 0 462 121 0 463 120 0 464 139 0 465 119 0 466 120 0 467 121 193 468 122 193 469 120 193 470 122 194 471 123 194 472 120 194 473 139 195 474 141 195 475 142 195 476 142 0 477 143 0 478 139 0 479 143 0 480 140 0 481 139 0 482 129 0 483 109 0 484 110 0 485 120 2 489 114 2 490 135 2 491 115 3 492 104 3 493 125 3 494 104 3 495 106 3 496 105 3 497 105 197 498 106 197 499 107 197 500 107 198 501 108 198 502 105 198 503 105 3 504 124 3 505 104 3 506 124 3 507 126 3 508 127 3 509 127 3 510 128 3 511 124 3 512 128 3 513 125 3 514 124 3 515 125 3 516 134 3 517 115 3 518 134 3 519 136 3 520 135 3 521 114 3 522 134 3 523 135 3 524 136 199 525 137 199 526 135 199 527 137 200 528 138 200 529 135 200 530 114 201 531 116 201 532 117 201 533 117 3 534 118 3 535 114 3 536 118 3 537 115 3 538 114 3 539 104 3 540 124 3 541 125 3 542 104 4 543 115 4 544 119 4 545 134 17 600 125 17 601 129 17 602 110 283 795 113 283 796 106 283 797 113 175 798 112 175 799 107 175 800 112 284 801 111 284 802 108 284 803 111 285 804 109 285 805 105 285 806 135 286 807 138 286 808 141 286 809 138 287 810 137 287 811 142 287 812 137 180 813 136 180 814 143 180 815 136 288 816 134 288 817 140 288 818 120 289 819 123 289 820 116 289 821 123 290 822 122 290 823 117 290 824 122 184 825 121 184 826 118 184 827 121 291 828 119 291 829 115 291 830 130 292 831 133 292 832 126 292 833 133 293 834 132 293 835 127 293 836 132 188 837 131 188 838 128 188 839 131 294 840 129 294 841 125 294 842 124 190 843 105 190 844 109 190 845</p>
        </triangles>
      </mesh>
    </geometry>
  </library_geometries>
  <library_visual_scenes>
    <visual_scene id="Scene" name="Scene">
      <node id="Clipboard" name="Clipboard" type="NODE">
        <matrix sid="transform">1 0 0 0 0 1 0 0 0 0 1 0 0 0 0 1</matrix>
        <instance_geometry url="#Cube-mesh" name="Clipboard">
          <bind_material>
            <technique_common>
              <instance_material symbol="Metal-material" target="#Metal-material">
                <bind_vertex_input semantic="UVMap" input_semantic="TEXCOORD" input_set="0"/>
              </instance_material>
              <instance_material symbol="Wood-material" target="#Wood-material">
                <bind_vertex_input semantic="UVMap" input_semantic="TEXCOORD" input_set="0"/>
              </instance_material>
            </technique_common>
          </bind_material>
        </instance_geometry>
      </node>
    </visual_scene>
  </library_visual_scenes>
  <scene>
    <instance_visual_scene url="#Scene"/>
  </scene>
</COLLADA>