%YAML 1.1
%TAG !u! tag:unity3d.com,2011:
--- !u!1045 &1
EditorBuildSettings:
  m_ObjectHideFlags: 0
  serializedVersion: 2
  m_Scenes:
  - enabled: 1
    path: Assets/Scenes/Launch.unity
    guid: 99d77373ba075d04a89025bcc2f27a34
  - enabled: 1
    path: Assets/Scenes/MedKit.unity
    guid: 29213756e83f90d4e9c6d09cfec2b7e8
  - enabled: 1
    path: Assets/Scenes/Video1.unity
    guid: 45a17ed27e74c9e4face1d738e362ddd
  - enabled: 1
    path: Assets/Scenes/Video2.unity
    guid: b95a22f3e1cea2d46bdbdf3bf87abf71
  - enabled: 1
    path: Assets/Scenes/Video3.unity
    guid: eccfb2e7674ff074da444ea940e47c02
  - enabled: 1
    path: Assets/Scenes/Video4.unity
    guid: 9b83ba15f053380439083ae5fae99412
  - enabled: 1
    path: Assets/Scenes/Video5.unity
    guid: d896e056d75a37642be5fe4de2f34bb0
  - enabled: 1
    path: Assets/Scenes/Video6.unity
    guid: 4e333934015565c4992e9c9dd2d9253f
  - enabled: 1
    path: Assets/Scenes/Quiz1.unity
    guid: cca5e028aa50d5a4385255753a7ff543
  - enabled: 1
    path: Assets/Scenes/OxygenTank.unity
    guid: 6a88f16a29d977a4ab9b79b4438aade9
  - enabled: 1
    path: Assets/Scenes/Pressure.unity
    guid: 8253e5a9e3248a045aeee8c07b4556ab
  m_configObjects:
    Unity.XR.Oculus.Settings: {fileID: 11400000, guid: 49e51ee2286ef9249885d9621e00c268,
      type: 2}
    com.unity.input.settings: {fileID: 11400000, guid: 5a382276707a5c243861c9190dfe3ec9,
      type: 2}
    com.unity.xr.management.loader_settings: {fileID: 11400000, guid: 30eb024b59a13604eab3bbd2e5f52b06,
      type: 2}
    com.unity.xr.openxr.settings4: {fileID: 11400000, guid: 7bb0fd6fc063f1c4eb4e5b093f0b99a5,
      type: 2}
